Introduction to Machine Learning
…
**Example:** Suppose data are `\(\mathcal{D} = (Y,X)\)`, where `\(Y = f(X)\)` and `\(f\)` is an unknown function. 

.pull-left[
**Workflow:** I give you a dataset with 25 observations:

```r
print(your_data)
```
]

.pull-right[

```
## # A tibble: 25 x 2
##        y     x
##    <dbl> <dbl>
##  1  8.05  1.68
##  2 41.7   8.08
##  3 11.2   3.85
##  4  7.83  3.28
##  5 17.5   6.02
##  6 15.9   6.04
##  7  3.90  1.25
##  8  6.60  2.95
##  9 20.6   5.78
## 10 22.1   6.31
## # ... with 15 more rows
```
…
**Example:** Suppose data are `\(\mathcal{D} = (Y,X)\)`, where `\(Y = f(X)\)` and `\(f\)` is an unknown function. 

.pull-left[
**Workflow:** I'm keeping a dataset away from you. It has 100 observations:

```r
print(my_data)
```
]

.pull-right[

```
## # A tibble: 100 x 2
##        x     y
##    <dbl> <dbl>
##  1 0.153 0.503
##  2 0.242 0.552
##  3 0.332 1.33 
##  4 0.421 1.61 
##  5 0.510 0.573
##  6 0.599 2.74 
##  7 0.688 2.51 
##  8 0.777 3.99 
##  9 0.866 2.74 
## 10 0.955 4.58 
## # ... with 90 more rows
```
…
**Example:** Suppose data are `\(\mathcal{D} = (Y,X)\)`, where `\(Y = f(X)\)` and `\(f\)` is an unknown function. 

.pull-left[
**Workflow:** I'll give you my `\(X\)` values, and then you'll try to predict what my `\(Y\)` values are 

```r
select(my_data, x)
```
]

.pull-right[

```
## # A tibble: 100 x 1
##        x
##    <dbl>
##  1 0.153
##  2 0.242
##  3 0.332
##  4 0.421
##  5 0.510
##  6 0.599
##  7 0.688
##  8 0.777
##  9 0.866
## 10 0.955
## # ... with 90 more rows
```
…
